…
Figure 2: The red bars are the expected number of speeches, the blue bars are the number of speeches that were actually made.

We first count the number of appearances each individual made in the Hansard. When considering different groups of speakers (for instance, the Labour party vs the Conservative party), it is important to remember that each group is present in different numbers. This affects how we think about the results, for example: if the conservatives have 4% more speakers than the labour party, we would expect to see them give 4% more of the speeches.

However, even taking into account the disproportionate numbers of speakers present for each party, the Conservatives still speak more often than we would expect. This in turn means that other parties spoke disproportionately less often than what would happen if speeches were perfectly fairly distributed among each group present. To summarise, the Conservatives had more Lords, and still made more than the their fair share of speeches. Number of speeches given is not independent of political party (chi_sq = 24.3, df = 7, p < 0.05).

Example calculation: There were 28 Conservative MPs and 95 MPs in total, 28 / 95 = 0.29 so 29% of the speakers present are Conservatives. If there were 251 speeches throughout the day we would expect 0.29 * 251 = 73 speeches to be given by Conservative MPs.

In reality this number was closer to 100. Let’s look into this in more detail…

## # A tibble: 95 x 3
##    name                            n_speeches party
##    <chr>                                <int> <fct>
##  1 Lord Howard of Lympne                   12 (Con)
##  2 Lord Taylor of Holbeach                 12 (Con)
##  3 Lord Bridges of Headley                  9 (Con)
##  4 Lord Keen of Elie                        9 (Con)
##  5 Lord Oates                               8 (LD) 
##  6 Lord Wigley                              8 other
##  7 Baroness Hayter of Kentish Town          7 (Lab)
##  8 Lord Hannay of Chiswick                  7 (CB) 
##  9 Lord Tebbit                              6 (Con)
## 10 Lord Bilimoria                           5 (CB) 
## # … with 85 more rows
…
